{
  "SWADE.ButtonReset": "Ripristina",
  "SWADE.ButtonSubmit": "Invia",
  "SWADE.CommunityCharSheet": "Scheda del Personaggio Legacy",
  "SWADE.CommunityNPCSheet": "Scheda PNG",
  "SWADE.CommunityVicSheet": "Scheda del Veicolo",
  "SWADE.CommunityItemSheet": "Scheda dell'oggetto",
  "SWADE.Expand": "Espandi",
  "SWADE.OfficialSheet": "Scheda ufficiale di Savage Worlds Official by Pinnacle",
  "SWADE.ModHint": "Controlla che il modificatore includa il + o -",
  "ACTOR.TypeCharacter": "Personaggio",
  "ACTOR.TypeNpc": "PNG",
  "ACTOR.TypeVehicle": "Veicolo",
  "ITEM.TypeWeapon": "Arma",
  "ITEM.TypeArmor": "Armatura",
  "ITEM.TypeShield": "Scudo",
  "ITEM.TypeGear": "Equipaggiamento",
  "ITEM.TypeEdge": "Vantaggio",
  "ITEM.TypeHindrance": "Svantaggio",
  "ITEM.TypeSkill": "Abilità",
  "ITEM.TypePower": "Potere",
  "ITEM.TypeAbility": "Abilità Speciali",
  "CARD.TypeAdventure": "Carta Avventura",
  "CARD.TypePoker": "Carta da Poker",
  "SWADE.ActionDeckPresetLight": "Carte Azione (Chiaro)",
  "SWADE.ActionDeckPresetDark": "Carte Azione (Scuro)",
  "SWADE.Name": "Nome",
  "SWADE.Tough": "Robustezza",
  "SWADE.Race": "Razza",
  "SWADE.Archetype": "Archetipo",
  "SWADE.Pace": "Passo",
  "SWADE.Running": "Corsa",
  "SWADE.RunningDie": "Dado Corsa",
  "SWADE.RollRun": "Clicca per correre",
  "SWADE.Adv": "Avanzamenti",
  "SWADE.Rank": "Rango",
  "SWADE.Inv": "Inventario",
  "SWADE.Summary": "Sommario",
  "SWADE.Pow": "Poteri",
  "SWADE.WildCard": "Protagonista",
  "SWADE.Extra": "Comparsa",
  "SWADE.Bennies": "Benny",
  "SWADE.TraitMod": "Modificatore al Tratto",
  "SWADE.SkillTest": "Tiro Abilità",
  "SWADE.AttributeTest": "Tiro Attributo",
  "SWADE.Attributes": "Attributi",
  "SWADE.Derived": "Statistiche derivate",
  "SWADE.AttrAgi": "Agilità",
  "SWADE.AttrSma": "Int.",
  "SWADE.AnimalSmarts": "Intelligenza animale",
  "SWADE.AnimalSmartsMarker": "A",
  "SWADE.AttrSpr": "Spirito",
  "SWADE.AttrStr": "Forza",
  "SWADE.AttrVig": "Vigore",
  "SWADE.Tweaks": "Tweaks",
  "SWADE.AttrAgiShort": "Agi",
  "SWADE.AttrSmaShort": "Int",
  "SWADE.AttrSprShort": "Spi",
  "SWADE.AttrStrShort": "For",
  "SWADE.AttrVigShort": "Vig",
  "SWADE.Skills": "Abilità",
  "SWADE.Unskilled": " Senza abilità",
  "SWADE.CoreSkill": "Abilità di Base",
  "SWADE.CoreSkills": "Abilità di Base",
  "SWADE.CoreSkillsDesc": "Inserisci la lista delle abilità che vuoi considerare Abilità di Base, separate da virgola. Inserisci la versione italiana (es per SWADE: Atletica, Conoscenze Comuni, Percezione, Persuasione, Furtività)",
  "SWADE.LinkAttr": "Attributi collegati",
  "SWADE.ArcaneSkill": "Abilità arcana",
  "SWADE.ActivateArcaneDevice": "Attiva Oggetto",
  "SWADE.Die": "Dado",
  "SWADE.WildDie": "Dado del Destino",
  "SWADE.Modifier": "Modificatore",
  "SWADE.BenniesSpend": "Usa un Benny",
  "SWADE.BenniesGive": "Assegna Benny",
  "SWADE.BenniesRefresh": "Ripristina i Benny",
  "SWADE.AllBenniesRefresh": "Ripristina tutti i Benny",
  "SWADE.BenniesRefreshMessage": "I Benny sono stati ripristinati!",
  "SWADE.BenniesRefreshAllMessage": "Tutti i Benny sono stati ripristinati!",
  "SWADE.BenniesGMRefreshMessage": "I Benny del Master sono stati ripristinati!",
  "SWADE.BenniesAddMessage": "ha ricevuto un nuovo Benny!",
  "SWADE.BenniesGMAddMessage": "ha preso un Benny in più!",
  "SWADE.BenniesSpendMessage": "spende un Benny!",
  "SWADE.BenniesMax": "Resetta i Benny",
  "SWADE.EditSkill": "Modifica Abilità",
  "SWADE.EdEdge": "Modifica Vantaggio",
  "SWADE.EdHind": "Modifica Svantaggio",
  "SWADE.Ed": "Modifica",
  "SWADE.Del": "Cancella",
  "SWADE.Arcane": "Arcano",
  "SWADE.All": "Tutti",
  "SWADE.HasPowers": "Ha Poteri",
  "SWADE.Weapons": "Armi",
  "SWADE.MeleeWeapons": "Armi da Corpo a corpo",
  "SWADE.RangedWeapons": "Armi a distanza",
  "SWADE.Armors": "Armature",
  "SWADE.WeaponsAndArmor": "Armi e Armature",
  "SWADE.Shields": "Scudi",
  "SWADE.Biography": "Biografia",
  "SWADE.Shaken": "Scosso",
  "SWADE.Distr": "Distratto",
  "SWADE.Vuln": "Vulnerabile",
  "SWADE.Stunned": "Stordito",
  "SWADE.Entangled": "Avviluppato",
  "SWADE.Bound": "Bloccato",
  "SWADE.Aiming": "Mirare",
  "SWADE.Berserk": "Berserk",
  "SWADE.Defending": "Difendere",
  "SWADE.Flying": "Volare",
  "SWADE.Follow": "Segui {name}",
  "SWADE.Unfollow": "Non seguire {name}",
  "SWADE.MakeGroupLeader": "Imposta il Leader del Gruppo",
  "SWADE.RemoveGroupLeader": "Rimuovi il Leader del Gruppo",
  "SWADE.AddTokenFollowers": "Aggiungi i Token selezionati come Seguaci",
  "SWADE.GroupByName": "Raggruppa per Nome",
  "SWADE.SetGroupColor": "Imposta un colore per il gruppo",
  "SWADE.SelectColor": "Seleziona un colore",
  "SWADE.Holding": "Trattenere",
  "SWADE.Hold": "Pausa",
  "SWADE.ActNow": "Agisci adesso",
  "SWADE.ActAfterCurrentCombatant": "Agisci dopo il combattente attuale",
  "SWADE.LoseTurn": "Passa il Turno",
  "SWADE.Frightened": "Spaventato",
  "SWADE.Encumbered": "Ingombro",
  "SWADE.Prone": "Prono",
  "SWADE.BleedingOut": "Dissanguamento",
  "SWADE.Diseased": "Malato",
  "SWADE.HeartAttack": "Attacco cardiaco",
  "SWADE.OnFire": "In fiamme",
  "SWADE.Poisoned": "Avvelenato",
  "SWADE.Reach": "Portata",
  "SWADE.Torch": "Torcia",
  "SWADE.Invisible": "Invisibile",
  "SWADE.Smite": "Castigo",
  "SWADE.Armor": "Armatura",
  "SWADE.Protection": "Protezione",
  "SWADE.Dmg": "Danno",
  "SWADE.DmgOver": "Sostituisce il Danno",
  "SWADE.Ap": "PA",
  "SWADE.APLong": "Penetrazione Armatura",
  "SWADE.RoF": "CdT",
  "SWADE.Mag": "Colpi",
  "SWADE.Parry": "Parata",
  "SWADE.Notes": "Note",
  "SWADE.ActionsEffects": "Azioni ed Effetti",
  "SWADE.Actions": "Azioni",
  "SWADE.DmgModUni": "Modificatore al danno (universale)",
  "SWADE.SkillModUni": "Modificatore all'Abilità (universale)",
  "SWADE.ShotsUsed": "Colpi usati",
  "SWADE.NaturalArmor": "Armatura naturale",
  "SWADE.HitLocations": "Zone protette",
  "SWADE.Head": "Testa",
  "SWADE.Torso": "Torso",
  "SWADE.Arms": "Braccia",
  "SWADE.Legs": "Gambe",
  "SWADE.MinStrLong": "Forza Minima",
  "SWADE.MinStr": "Forza Min.",
  "SWADE.MinStrShort": "For Min",
  "SWADE.Desc": "Descrizione",
  "SWADE.Special": "Abilità Speciali",
  "SWADE.Details": "Dettagli",
  "SWADE.Equippable": "Equipaggiabile",
  "SWADE.ArcaneDevice": "Oggetto Arcano",
  "SWADE.Misc": "Varie",
  "SWADE.QuickAccess": "Accesso rapido",
  "SWADE.Effects": "Active Effects",
  "SWADE.Hindrances": "Svantaggi",
  "SWADE.MajHind": "Svantaggio Maggiore",
  "SWADE.Major": "(Maggiore)",
  "SWADE.Minor": "(Minore)",
  "SWADE.Edges": "Vantaggi",
  "SWADE.ArcBack": "Background Arcani",
  "SWADE.Req": "Requisiti",
  "SWADE.Conv": "Ispirazione",
  "SWADE.UseConv": "Ispirazione attivata!",
  "SWADE.Hesitant": "Esitante",
  "SWADE.LevelHeaded": "Nervi Saldi",
  "SWADE.ImprovedLevelHeaded": "Nervi Saldi Migliorato",
  "SWADE.AutoCalc": "Calcolo automatico",
  "SWADE.InclArmor": "Calcola automaticamente la Robustezza, inclusa l'armatura",
  "SWADE.Label": "Nome",
  "SWADE.HasMaxValue": "Ha valore max",
  "SWADE.Enabled": "Attivo",
  "SWADE.Currency": "Valuta",
  "SWADE.CarryWeight": "Ingombro",
  "SWADE.Eqd": "Ind",
  "SWADE.Equipped": "Equipaggiato",
  "SWADE.Unequipped": "Non equipaggiato",
  "SWADE.Quantity": "Quantità",
  "SWADE.Weight": "Peso",
  "SWADE.Price": "Costo",
  "SWADE.PP": "PP",
  "SWADE.PPShort": "P.ti Potere",
  "SWADE.PPCost": "Costo PP",
  "SWADE.CurPP": "Punti Potere attuali",
  "SWADE.MaxPP": "Punti Potere Max",
  "SWADE.Dur": "Durata",
  "SWADE.Trap": "Trapping",
  "SWADE.Wound": "Ferita",
  "SWADE.Wounds": "Ferite",
  "SWADE.WoundsMax": "Ferite Max",
  "SWADE.Fatigue": "Fatica",
  "SWADE.FatigueMax": "Fatica Max",
  "SWADE.Incap": "Incapacitato!",
  "SWADE.Init": "Iniziativa",
  "SWADE.DrawInit": "Pesca Iniziativa",
  "SWADE.ActionDeckReset": "Rimescola le Carte Azione",
  "SWADE.ActionDeckResetNotification": "Il mazzo delle Carte Azione è stato mescolato",
  "SWADE.InitDraw": "ha pescato..",
  "SWADE.JokersWild": "Jolly Impazziti!",
  "SWADE.General": "Generale",
  "SWADE.Addi": "Addizionale",
  "SWADE.Status": "Status",
  "SWADE.Handling": "Manovrabilità",
  "SWADE.Topspeed": "Velocità max",
  "SWADE.OutOfControl": "Fuori Controllo",
  "SWADE.Wrecked": "Distrutto",
  "SWADE.Item": "Oggetto",
  "SWADE.Cargo": "Carico",
  "SWADE.MaxCargo": "Peso massimo di carico",
  "SWADE.CargoWeight": "Peso di carico",
  "SWADE.Mods": "Modifiche",
  "SWADE.ModSlots": "Slot per le Modifiche",
  "SWADE.MaxMods": "Numero massimo di Modifiche",
  "SWADE.Operator": "Operatore",
  "SWADE.ManCheck": "Tiri di Manovra",
  "SWADE.AltSkill": "Abilità Alternativa",
  "SWADE.Class": "Tipologia",
  "SWADE.Vehicular": "Armi veicolari",
  "SWADE.VehicleMod": "Mod Veicolo",
  "SWADE.OpSkill": "Abilità per operare",
  "SWADE.CardSound": "Card Musicale",
  "SWADE.CardSoundDesc": "Riproduci una Card Musicale quando distribuisci l'Iniziativa",
  "SWADE.AutoInit": "Iniziativa Automatica",
  "SWADE.AutoInitDesc": "Pesca automaticamente una Carta Azione ad ogni turno",
  "SWADE.CreateInitChat": "Pubblica in chat l'iniziativa",
  "SWADE.HideWC": "Nascondi i PNG Protagonisti",
  "SWADE.HideWCDesc": "Non mostrare ai giocatori quali PNG sono Protagonisti",
  "SWADE.EnableConv": "Abilita Ispirazione",
  "SWADE.EnableConvDesc": "Abilita la Regola di Ambientazione \"Ispirazione\"",
  "SWADE.EnableWoundPace": "Modifica il Passo con le Ferite",
  "SWADE.EnableWoundPaceDesc": "Se abilitato, il Passo è influenzato dalle Ferite",
  "SWADE.AutoLink": "Collega automaticamente i Protagonisti",
  "SWADE.AutoLinkDesc": "Se abilitato, i PNG Protagonisti avranno il Token collegato quando passano da Comparse a Protagonisti",
  "SWADE.GmBennies": "Benny del GM",
  "SWADE.GmBenniesDesc": "Imposta quanti Benny riceve il Master quando vengono ripristinati",
  "SWADE.EnableBennyNotify": "Notifiche sui Benny",
  "SWADE.EnableBennyNotifyDesc": "Mostra in chat quando i Benny vengono distribuiti, ripresi o ripristinati.",
  "SWADE.VehicleMods": "Mod Veicoli",
  "SWADE.VehicleModsDesc": "I Veicoli usano Slot per le Modifiche",
  "SWADE.VehicleEdges": "Vantaggi del Veicolo",
  "SWADE.VehicleEdgesDesc": "I Veicoli usano Vantaggi e Svantaggi",
  "SWADE.ShowBennyAnimation": "Mostra l'animazione dei Benny",
  "SWADE.ShowBennyAnimationDesc": "Riproduci un'animazione quando usi un Benny. Disponibile solo se Dice So Nice! è installato.",
  "SWADE.WildDiePreset": "Tema per il Dado del Destino",
  "SWADE.WildDiePresetDesc": "Seleziona un Tema per il Dado del Destino su DSN. Seleziona Custom se vuoi crearne uno tuo o Nessuno se vupoi che il Dado del Destino sia uguale agli altri dadi. Considera che un Dado del Destino custom può essere visto solo da te Gli altri giocatori lo vedranno in maniera differente.",
  "SWADE.AmmoManagement": "Gestione munizioni",
  "SWADE.AmmoManagementDesc": "Quando attivo, usa le munizioni del caricatore dell'arma. La Card dell'oggetto avrà anche un tasto Ricarica e non sarai in grado di sparare se non avrai abbastanza munizioni.",
  "SWADE.PCAmmoFromInventory": "I PG consumano munizioni dall'inventario",
  "SWADE.PCAmmoFromInventoryDesc": "Se attivata, è possibile impostare un oggetto di tipo Gear come munizione dell'arma. Tale oggetto verrà utilizzato per ricaricare.",
  "SWADE.NPCAmmoFromInventory": "I PNG usano le munizioni del loro Inventario",
  "SWADE.VehicleAmmoFromInventory": "I veicoli usano le munizioni del loro Inventario",
  "SWADE.SettingConf": "Configura le Impostazioni",
  "SWADE.SettingConfLabel": "Apri le Impostazioni",
  "SWADE.SettingConfDesc": "Configura nel dettaglio il Sistema di Gioco per aderire al meglio all'Ambientazione che stai usando",
  "SWADE.DiceConf": "Impostazioni dei dadi",
  "SWADE.DiceConfDesc": "Configura le impostazioni per l'integrazione di SWADE con Dice So Nice",
  "SWADE.DiceConfLabel": "Apri la Configurazione dei Dadi",
  "SWADE.Formula": "Formula",
  "SWADE.SitMod": "Modificatore situazionale",
  "SWADE.RollMode": "Tipologia di Tiro",
  "SWADE.RollExample": "eg. +1d6x= or -2",
  "SWADE.Roll": "Tira",
  "SWADE.RollRaise": "Tira con Incremento",
  "SWADE.GroupRoll": "Tiro di gruppo",
  "SWADE.Ok": "Ok",
  "SWADE.Cancel": "Annulla",
  "SWADE.Redraw": "Pesca una carta",
  "SWADE.Add": "Aggiungi",
  "SWADE.ConfigInit": "Configura l'iniziativa",
  "SWADE.IgnWounds": "Ignora Ferite",
  "SWADE.Size": "Taglia",
  "SWADE.Scale": "Scala",
  "SWADE.PickACard": "Scegli una carta",
  "SWADE.NoCardsLeft": "Non ci sono abbastanza carte rimaste del mazzo! Sono disponibili solo {current} su {needed} necessarie",
  "SWADE.OldCard": "Vecchia carta",
  "SWADE.ActionCard": "Carta Azione",
  "SWADE.ConvictionActive": "Ispirazione attiva",
  "SWADE.ConvictionActivate": "Ispirazione attivata!",
  "SWADE.ConvictionExtend": "Vuoi estendere la tua Ispirazione?",
  "SWADE.ConvictionEnd": "disattiva l'Ispirazione",
  "SWADE.NoBennies": "Non hai abbastanza Benny!",
  "SWADE.SBT": "Modello di esplosione piccola",
  "SWADE.MBT": "Modello di esplosione medio",
  "SWADE.LBT": "Modello di esplosione grande",
  "SWADE.Cone": "Modello conico",
  "SWADE.GM": "Master",
  "SWADE.Vehicles": "Veicoli",
  "SWADE.AddStats": "Statistiche addizionali",
  "SWADE.Actors": "Personaggi",
  "SWADE.Items": "Oggetti",
  "SWADE.Max": "Massimo",
  "SWADE.Curr": "Corrente",
  "SWADE.DSNNone": "- Nessuno -",
  "SWADE.Reload": "Ricarica",
  "SWADE.Refresh": "Ripesca questa carta",
  "SWADE.Ammo": "Munizioni",
  "SWADE.ReloadUnneeded": "L'arma è già completamente carica",
  "SWADE.ReloadSuccess": "L'arma è stata ricaricata con successo",
  "SWADE.NotEnoughAmmo": "Non hai abbastanza munizioni per questa azione!",
  "SWADE.NotEnoughAmmoToReload": "Non hai abbastanza munizioni per ricaricare completamente",
  "SWADE.AutoReload": "Non ricarica",
  "SWADE.NoAmmoSet": "Non ci sono munizioni impostate",
  "SWADE.Trapping": "Aspetti",
  "SWADE.AddBenny": "Aggiungi un Benny",
  "SWADE.CurrentBennies": "Benny attuali",
  "SWADE.RerollWithBenny": "Ritira con un Benny",
  "SWADE.FreeReroll": "Ritira",
  "SWADE.HideNpcItemChatCards": "Nascondi le Card dei PNG",
  "SWADE.HideNpcItemChatCardsDesc": "Se abilitato, Le Card dei PNG sono automaticamente inviate come sussurro ai GM anziché essere visibili da tutti",
  "SWADE.JokersWildDesc": "Distribuisci un Benny ad ogni giocatore quando viene pescato un Jolly",
  "SWADE.ParryBase": "Nome tradotto dell'Abilità \"Fighting\"",
  "SWADE.ParryBaseDesc": "Il nome dell'abilità che viene usata per calcolare la Parata",
  "SWADE.AutoCalcParry": "Calcola automaticamente la Parata, inclusi gli scudi",
  "SWADE.Subtype": "Sottotipo",
  "SWADE.SpecialAbility": "Abilità speciale",
  "SWADE.SpecialAbilities": "Abilità speciali",
  "SWADE.RacialAbilities": "Abilità razziali",
  "SWADE.ArchetypeAbilities": "Archetype Abilities",
  "SWADE.About": "Info",
  "SWADE.EdgesHindrances": "Vantaggi & Svantaggi",
  "SWADE.GrantsPowers": "Fornisce Poteri",
  "SWADE.Crew": "Equipaggio obbligatorio",
  "SWADE.Passengers": "Passeggeri opzionali",
  "SWADE.String": "Testo",
  "SWADE.Number": "Numero",
  "SWADE.Checkbox": "Checkbox",
  "SWADE.Ace": "Esplodere",
  "SWADE.NoPowerPoints": "Non usare Punti Potere",
  "SWADE.NoPowerPointsDesc": "Quando questa opzione è attiva, tutte le interazioni coi Punti Potere sono disabilitate",
  "SWADE.WealthType": "Tipo di ricchezza",
  "SWADE.WealthDie": "Dado Ricchezza",
  "SWADE.WealthTypeDesc": "Scegli come tracciare la ricchezza e la valuta",
  "SWADE.CurrencyName": "Nome della valuta",
  "SWADE.CurrencyNameDesc": "Dai un nome alla valuta",
  "SWADE.TraitRolls": "Tiri sui Tratti",
  "SWADE.Trait": "Tratti",
  "SWADE.AltTrait": "Tratto alternativo",
  "SWADE.ClickSuggestions": "Clicca per suggerimenti",
  "SWADE.Quick": "Veloce",
  "SWADE.BonusDamage": "Bonus al Danno",
  "SWADE.CoreSkillsPack": "Compendio per le Abilità di Base",
  "SWADE.CoreSkillsPackDesc": "Scegli il Compendio da cui verranno selezionate le Abilità di Base",
  "SWADE.Joker": "Jolly",
  "SWADE.Subtract": "Sottrai",
  "SWADE.DmgRolls": "Tira i Danni",
  "SWADE.SubtractPPDesc": "Sottrai il costo in Punti Potere da quelli disponibili",
  "SWADE.AddPPDesc": "Aggiungi il costo in Punti Potere a quelli disponibili",
  "SWADE.RightClickZoom": "Tasto destro per Zoomare",
  "SWADE.SysMigrationWarning": "I dati del tuo Sistema SWADE provengono da una vecchia versione di Foundry e non è possibile assicurare che la migrazione avvenga con successo. Verrà fatto un tentativo, ma potrebbero esserci degli errori nel risultato finale.",
  "SWADE.SomethingWrongWithCardComp": "Qualcosa non ha funzionato con il Compendio delle carte, ritorno al valore di default",
  "SWADE.DeckShuffled": "Il mazzo è stato mescolato in automatico",
  "SWADE.BasePace": "Passo Base",
  "SWADE.WarningPackLocked": "Non puoi modificare un Compendio bloccato. Per favore prima sbloccalo",
  "SWADE.ActionCardEditor": "Editor del mazzo delle carte azione",
  "SWADE.CardFace": "Fronte della carta",
  "SWADE.CardValue": "Valore",
  "SWADE.CardSuit": "Seme",
  "SWADE.IsJoker": "E' un Jolly",
  "SWADE.OpenACEditor": "Apri nell'editor",
  "SWADE.Yes": "Sì",
  "SWADE.No": "No",
  "SWADE.ShowCharacterSummary": "Mostra il Riassunto del Personaggio",
  "SWADE.CharacterSummary": "Riassunto del Personaggio",
  "SWADE.CopyHtml": "Copia HTML",
  "SWADE.CopyMarkdown": "Copia Markdown",
  "SWADE.InitCardDeck": "Mazzo di carte per l'Iniziativa",
  "SWADE.Imperial": "Imperiale",
  "SWADE.Metric": "Metrico",
  "SWADE.WeightUnitLabel": "Unità di peso",
  "SWADE.WeightUnitDesc": "Imposta se il peso è misurato in libbre o in chilogrammi. Modificando questa opzione NON verrà modificato il peso degli oggetti, solo come viene calcolato l'Ingombro",
  "SWADE.UseAttributeShorts": "Usa i nomi degli Attributi abbreviati",
  "SWADE.UseAttributeShortsDesc": "Attiva questa opzione se vuoi vedere le abbreviazioni degli Attributi nelle schede dei Personaggi e delle Comparse. Agi invece di Agilità, Int invece di Intelligenza, ecc.. Dovrai chiudere e riaprire le schede aperte perchè si veda la modifica.",
  "SWADE.BennyImageSheet": "Benny",
  "SWADE.BennyImageSheetDesc": "Seleziona l'immagine da usare nella Scheda Personaggio",
  "SWADE.Benny3DFront": "Texture frontale",
  "SWADE.Benny3DFrontDesc": "Texture frontale del Benny in 3D",
  "SWADE.Benny3DBack": "Texture del retro",
  "SWADE.Benny3DBackDesc": "Texture del retro del Benny 3D",
  "SWADE.ChangeBennyWarning": "La modifica di queste impostazioni richiede che la pagina venga ricaricata!",
  "SWADE.3DBennies": "Benny 3D",
  "SWADE.HardChoices": "Decisioni Difficili",
  "SWADE.HardChoicesDesc": "Selezionando questa casella verrà abilitata la Regola di Ambientazione 'Decisioni Difficili'",
  "SWADE.WealthSelectionNoneOther": "Nessuno/Altro",
  "SWADE.Benny3DFrontBump": "\"Bump Map\" Fronte",
  "SWADE.Benny3DBackBump": "\"Bump Map\" Retro",
  "SWADE.Benny3DFrontBumpDesc": "\"Bumb map\" frontale del benny",
  "SWADE.Benny3DBackBumpDesc": "\"Bumb map\" del retro del benny",
  "SWADE.Modifiers": "Modificatori",
  "SWADE.ActionTraitMod": "Action Trait Modifier",
  "SWADE.ActionDmgMod": "Action Damage Modifier",
  "SWADE.ItemTraitMod": "Item Trait Modifier",
  "SWADE.ItemDmgMod": "Item Damage Modifer",
  "SWADE.Duplicates": "Sono stati trovati dei duplicati",
  "SWADE.DuplicateItemsBodyText": "While adding the {type} <strong>{name}</strong> to the Actor {target} the following duplicates (by name and type) have been found. The new items  have been renamed to reflect their source.",
  "SWADE.NoActionDeckFound": "Non è stato trovato nessun mazzo delle Carte Azione, ne creo uno nuovo",
  "SWADE.NoActionDeckDiscardPileFound": "Non è stato trovato nessun mazzo degli scarti delle Carte Azione, ne creo uno nuovo",
  "SWADE.InitDiscardPile": "Mazzo degli scarti per l'Iniziativa",
  "SWADE.Wealth": "Ricchezza",
  "SWADE.Characters": "Personaggi",
  "SWADE.SettingRules": "Regole di Ambientazione",
  "SWADE.WorldBasics": "Impostazioni generali",
  "SWADE.CoreSkillsList": "Lista delle Abilità di base",
  "SWADE.MAPenalty": "Penalità per azioni multiple",
  "SWADE.Mod.Custom.Add": "Aggiungi modificatore personalizzato",
  "SWADE.Mod.Support": "Supporto",
  "SWADE.Mod.Preset.Choose": "Scegli un modificatore..",
  "SWADE.Mod.Preset.Add": "Aggiungi un modificatore",
  "SWADE.Illumination._name": "Illuminazione",
  "SWADE.Illumination.Dim": "Luce Fioca",
  "SWADE.Illumination.Dark": "Oscurità",
  "SWADE.Illumination.Pitch": "Buio Pesto",
  "SWADE.Cover._name": "Copertura",
  "SWADE.Cover.Shield": "Copertura - Scudo",
  "SWADE.Cover.Light": "Copertura leggera",
  "SWADE.Cover.Medium": "Copertura media",
  "SWADE.Cover.Heavy": "Copertura pesante",
  "SWADE.Cover.Total": "Copertura totale",
  "SWADE.Range._name": "Gittata",
  "SWADE.Range.Medium": "Gittata Media",
  "SWADE.Range.Long": "Gittata Lunga",
  "SWADE.Range.Extreme": "Gittata Estrema",
  "SWADE.ModOther": "Altri modificatori",
  "SWADE.Snapfire": "Bruciapelo",
  "SWADE.UnstablePlatform": "Piattaforma Instabile",
  "SWADE.CannotAddRaceToRace": "Non puoi aggiungere una razza/archetipo ad una razza/archetipo",
  "SWADE.ApplyEncumbrance": "Applica le penalità per l'Ingombro",
  "SWADE.ApplyEncumbranceHint": " \nApplica le penalità per l'Ingombro. Al momento non sono supportati i test di {vigor} per resistere alla {fatigue}!",
  "SWADE.LayOutChaseWithDeck": "crea un Inseguimento con questo mazzo",
  "SWADE.ClearChaseCards": "Rimuovi le \"Carte Inseguimento\" dalla Scena",
  "SWADE.NoSceneAvailable": "Non ci sono Scene disponibili o hai disabilitato il canvas",
  "SWADE.ChaseCardsCleared": "Tutte le \"Carte Inseguimento\" sono state rimosse dalla Scena",
  "SWADE.SetUpChase": "Prepara un Inseguimento",
  "SWADE.NotADeckCompendium": "Il compendio selezionato non sembra essere un Mazzo del vecchio sistema",
  "SWADE.ConvertToDeck": "Converti in Mazzo",
  "SWADE.Expiration.TabLabel": "Effetto nel Turno",
  "SWADE.Expiration.Description": "<p>Gli effetti si esauriscono <em>nel prossimo turno (o in quelli successivi) </em>del bersaglio.</p>",
  "SWADE.Expiration.Behavior": "Quando si esaurisce",
  "SWADE.Expiration.BeginAuto": "Inizio del Turno, in automatico",
  "SWADE.Expiration.BeginPrompt": "Inizio del Turno, chiedi conferma",
  "SWADE.Expiration.EndAuto": "Fine del Turno, in automatico",
  "SWADE.Expiration.EndPrompt": "Fine del Turno, chiedi conferma",
  "SWADE.Expiration.None": "Mai",
  "SWADE.Expiration.LooseTurnOnHold": "Perde il turno se in pausa",
  "SWADE.RemoveEffectTitle": "Rimuovi {label} ?",
  "SWADE.RemoveEffectBody": "<p style=\"text-align: center;\">Rimuovi <strong>{label}</strong> da <strong>{parent}</strong>?</p>",
  "SWADE.PPAbbreviation": "PP"
}